\relax 
\providecommand\hyper@newdestlabel[2]{}
\providecommand\HyperFirstAtBeginDocument{\AtBeginDocument}
\HyperFirstAtBeginDocument{\ifx\hyper@anchor\@undefined
\global\let\oldcontentsline\contentsline
\gdef\contentsline#1#2#3#4{\oldcontentsline{#1}{#2}{#3}}
\global\let\oldnewlabel\newlabel
\gdef\newlabel#1#2{\newlabelxx{#1}#2}
\gdef\newlabelxx#1#2#3#4#5#6{\oldnewlabel{#1}{{#2}{#3}}}
\AtEndDocument{\ifx\hyper@anchor\@undefined
\let\contentsline\oldcontentsline
\let\newlabel\oldnewlabel
\fi}
\fi}
\global\let\hyper@last\relax 
\gdef\HyperFirstAtBeginDocument#1{#1}
\providecommand\HyField@AuxAddToFields[1]{}
\providecommand\HyField@AuxAddToCoFields[2]{}
\@writefile{nav}{\headcommand {\slideentry {0}{0}{1}{1/1}{}{0}}}
\@writefile{nav}{\headcommand {\beamer@framepages {1}{1}}}
\@writefile{nav}{\headcommand {\slideentry {0}{0}{2}{2/2}{}{0}}}
\@writefile{nav}{\headcommand {\beamer@framepages {2}{2}}}
\@writefile{nav}{\headcommand {\slideentry {0}{0}{3}{3/3}{}{0}}}
\@writefile{nav}{\headcommand {\beamer@framepages {3}{3}}}
\@writefile{nav}{\headcommand {\slideentry {0}{0}{4}{4/4}{}{0}}}
\@writefile{nav}{\headcommand {\beamer@framepages {4}{4}}}
\@writefile{nav}{\headcommand {\slideentry {0}{0}{5}{5/5}{}{0}}}
\@writefile{nav}{\headcommand {\beamer@framepages {5}{5}}}
\@writefile{nav}{\headcommand {\slideentry {0}{0}{6}{6/6}{}{0}}}
\@writefile{nav}{\headcommand {\beamer@framepages {6}{6}}}
\@writefile{nav}{\headcommand {\slideentry {0}{0}{7}{7/7}{}{0}}}
\@writefile{nav}{\headcommand {\beamer@framepages {7}{7}}}
\@writefile{nav}{\headcommand {\slideentry {0}{0}{8}{8/8}{}{0}}}
\@writefile{nav}{\headcommand {\beamer@framepages {8}{8}}}
\@writefile{nav}{\headcommand {\slideentry {0}{0}{9}{9/9}{}{0}}}
\@writefile{nav}{\headcommand {\beamer@framepages {9}{9}}}
\@writefile{nav}{\headcommand {\slideentry {0}{0}{10}{10/10}{}{0}}}
\@writefile{nav}{\headcommand {\beamer@framepages {10}{10}}}
\@writefile{nav}{\headcommand {\slideentry {0}{0}{11}{11/11}{}{0}}}
\@writefile{nav}{\headcommand {\beamer@framepages {11}{11}}}
\@writefile{nav}{\headcommand {\slideentry {0}{0}{12}{12/12}{}{0}}}
\@writefile{nav}{\headcommand {\beamer@framepages {12}{12}}}
\@writefile{nav}{\headcommand {\slideentry {0}{0}{13}{13/13}{}{0}}}
\@writefile{nav}{\headcommand {\beamer@framepages {13}{13}}}
\@writefile{nav}{\headcommand {\slideentry {0}{0}{14}{14/14}{}{0}}}
\@writefile{nav}{\headcommand {\beamer@framepages {14}{14}}}
\@writefile{nav}{\headcommand {\slideentry {0}{0}{15}{15/15}{}{0}}}
\@writefile{nav}{\headcommand {\beamer@framepages {15}{15}}}
\@writefile{nav}{\headcommand {\slideentry {0}{0}{16}{16/16}{}{0}}}
\@writefile{nav}{\headcommand {\beamer@framepages {16}{16}}}
\@writefile{nav}{\headcommand {\slideentry {0}{0}{17}{17/17}{}{0}}}
\@writefile{nav}{\headcommand {\beamer@framepages {17}{17}}}
\@writefile{nav}{\headcommand {\slideentry {0}{0}{18}{18/18}{}{0}}}
\@writefile{nav}{\headcommand {\beamer@framepages {18}{18}}}
\@writefile{nav}{\headcommand {\slideentry {0}{0}{19}{19/19}{}{0}}}
\@writefile{nav}{\headcommand {\beamer@framepages {19}{19}}}
\@writefile{nav}{\headcommand {\slideentry {0}{0}{20}{20/20}{}{0}}}
\@writefile{nav}{\headcommand {\beamer@framepages {20}{20}}}
\@writefile{nav}{\headcommand {\slideentry {0}{0}{21}{21/21}{}{0}}}
\@writefile{nav}{\headcommand {\beamer@framepages {21}{21}}}
\@writefile{nav}{\headcommand {\slideentry {0}{0}{22}{22/22}{}{0}}}
\@writefile{nav}{\headcommand {\beamer@framepages {22}{22}}}
\@writefile{nav}{\headcommand {\slideentry {0}{0}{23}{23/23}{}{0}}}
\@writefile{nav}{\headcommand {\beamer@framepages {23}{23}}}
\@writefile{nav}{\headcommand {\slideentry {0}{0}{24}{24/24}{}{0}}}
\@writefile{nav}{\headcommand {\beamer@framepages {24}{24}}}
\@writefile{nav}{\headcommand {\slideentry {0}{0}{25}{25/25}{}{0}}}
\@writefile{nav}{\headcommand {\beamer@framepages {25}{25}}}
\@writefile{nav}{\headcommand {\slideentry {0}{0}{26}{26/26}{}{0}}}
\@writefile{nav}{\headcommand {\beamer@framepages {26}{26}}}
\@writefile{nav}{\headcommand {\beamer@partpages {1}{26}}}
\@writefile{nav}{\headcommand {\beamer@subsectionpages {1}{26}}}
\@writefile{nav}{\headcommand {\beamer@sectionpages {1}{26}}}
\@writefile{nav}{\headcommand {\beamer@documentpages {26}}}
\@writefile{nav}{\headcommand {\gdef \inserttotalframenumber {26}}}
\gdef\minted@oldcachelist{,
  default.pygstyle,
  6BF19A541EB3AD6A401994D7777B4C5E7534C6CE896A8634B33EE56C0B94445D.pygtex,
  8CF009B4959B25CB1E14EDCD0FF4B73E7534C6CE896A8634B33EE56C0B94445D.pygtex,
  A66598A84DD2251968F6AB755DB4ACFA7534C6CE896A8634B33EE56C0B94445D.pygtex,
  0E0716A8A9924F711ECC74144C98C283A584B356830EC1767D10DCBE641D8EB0.pygtex,
  997076A8843A3C7054DF2D29447AF9D5A584B356830EC1767D10DCBE641D8EB0.pygtex,
  5F4F0243B1E170A26CB33B8DCE6FD0387534C6CE896A8634B33EE56C0B94445D.pygtex,
  D0FF8821DFED198CCA2CBA7D1DC2874F7534C6CE896A8634B33EE56C0B94445D.pygtex,
  3AC7525520487883A1B9580C9F885F0E7534C6CE896A8634B33EE56C0B94445D.pygtex,
  A0B4F8E52A4F4ABA89837C30D11DEDE77534C6CE896A8634B33EE56C0B94445D.pygtex,
  4E972D3A6A9232E254B73CB5C02060417534C6CE896A8634B33EE56C0B94445D.pygtex,
  FF18CEAB9CE70D23DF52A5120E58EC607534C6CE896A8634B33EE56C0B94445D.pygtex,
  5E74C15627DD9DBE01A4E98B98E155317534C6CE896A8634B33EE56C0B94445D.pygtex,
  7CE021FBA74B325B9CFD845741985BC57534C6CE896A8634B33EE56C0B94445D.pygtex,
  8CD82D1F236A77B505EE235C825EFAB97534C6CE896A8634B33EE56C0B94445D.pygtex,
  908239832532F85272D7BC1CB84FD57D7534C6CE896A8634B33EE56C0B94445D.pygtex,
  8413AE597255DF4655B4A6688E9C3C9E7534C6CE896A8634B33EE56C0B94445D.pygtex,
  C38DFD8F7126B703B618B889ACE1B8737534C6CE896A8634B33EE56C0B94445D.pygtex,
  EBC85B0DDFC9B6E98C5DC524FF31AA107534C6CE896A8634B33EE56C0B94445D.pygtex,
  38718BA15520546CA74D7D7C5F51D6D97534C6CE896A8634B33EE56C0B94445D.pygtex,
  3370A63A80DB0F906262A665D48B05697534C6CE896A8634B33EE56C0B94445D.pygtex,
  F2A4DFDE6347C22AFED1911CB7C02F237534C6CE896A8634B33EE56C0B94445D.pygtex}
\gdef \@abspage@last{26}
