\relax 
\@writefile{toc}{\contentsline {section}{\numberline {1}Teoria delle categorie}{3}{}\protected@file@percent }
\@writefile{toc}{\contentsline {subsection}{\numberline {1.1}Alcune categorie}{3}{}\protected@file@percent }
\@writefile{toc}{\contentsline {subsection}{\numberline {1.2}Altri esempi di categoria}{3}{}\protected@file@percent }
\@writefile{toc}{\contentsline {section}{\numberline {2}Relazione tra teoria delle categorie ed insiemistica}{4}{}\protected@file@percent }
\@writefile{toc}{\contentsline {subsection}{\numberline {2.1}La categoria \textbf  {Set}}{4}{}\protected@file@percent }
\@writefile{toc}{\contentsline {section}{\numberline {3}Costruzioni universali}{5}{}\protected@file@percent }
\@writefile{toc}{\contentsline {subsection}{\numberline {3.1}Isomorfismi}{5}{}\protected@file@percent }
\@writefile{toc}{\contentsline {section}{\numberline {4}Teoria delle categorie e programmazione}{6}{}\protected@file@percent }
\@writefile{toc}{\contentsline {subsection}{\numberline {4.1}Funzioni pure e non pure}{6}{}\protected@file@percent }
\@writefile{toc}{\contentsline {section}{\numberline {5}Modello matematico di un programma}{7}{}\protected@file@percent }
\@writefile{toc}{\contentsline {subsection}{\numberline {5.1}Polimorfismo}{7}{}\protected@file@percent }
\@writefile{toc}{\contentsline {subsection}{\numberline {5.2}Composizione in Haskell}{8}{}\protected@file@percent }
\@writefile{toc}{\contentsline {subsection}{\numberline {5.3}Funzioni in più argomenti}{9}{}\protected@file@percent }
\@writefile{toc}{\contentsline {section}{\numberline {6}Product}{9}{}\protected@file@percent }
\@writefile{toc}{\contentsline {subsection}{\numberline {6.1}Product in Haskell}{10}{}\protected@file@percent }
\@writefile{toc}{\contentsline {section}{\numberline {7}Funzioni in più variabili in haskell}{11}{}\protected@file@percent }
\@writefile{toc}{\contentsline {subsection}{\numberline {7.1}Con product}{11}{}\protected@file@percent }
\@writefile{toc}{\contentsline {subsection}{\numberline {7.2}Currying}{11}{}\protected@file@percent }
\@writefile{toc}{\contentsline {subsection}{\numberline {7.3}curry ed uncurry}{12}{}\protected@file@percent }
\@writefile{toc}{\contentsline {section}{\numberline {8}Coproduct}{13}{}\protected@file@percent }
\@writefile{toc}{\contentsline {subsection}{\numberline {8.1}Pattern matching}{14}{}\protected@file@percent }
\@writefile{toc}{\contentsline {subsection}{\numberline {8.2}Esempio di coproduct in Haskell}{15}{}\protected@file@percent }
\@writefile{toc}{\contentsline {section}{\numberline {9}Functors}{15}{}\protected@file@percent }
\@writefile{toc}{\contentsline {subsection}{\numberline {9.1}Functors in Haskell}{16}{}\protected@file@percent }
\@writefile{toc}{\contentsline {section}{\numberline {10}Typeclasses}{17}{}\protected@file@percent }
\@writefile{toc}{\contentsline {subsection}{\numberline {10.1}List in Haskell}{17}{}\protected@file@percent }
\@writefile{toc}{\contentsline {subsection}{\numberline {10.2}List come functor}{18}{}\protected@file@percent }
\@writefile{toc}{\contentsline {section}{\numberline {11}Functor composition}{18}{}\protected@file@percent }
\@writefile{toc}{\contentsline {section}{\numberline {12}Product functor?}{20}{}\protected@file@percent }
\@writefile{toc}{\contentsline {section}{\numberline {13}Bifunctor}{20}{}\protected@file@percent }
\gdef\minted@oldcachelist{,
  default.pygstyle,
  6BF19A541EB3AD6A401994D7777B4C5EC95433F8B3C5A10CEF413AD871465228.pygtex,
  8CF009B4959B25CB1E14EDCD0FF4B73EC95433F8B3C5A10CEF413AD871465228.pygtex,
  A66598A84DD2251968F6AB755DB4ACFAC95433F8B3C5A10CEF413AD871465228.pygtex,
  0E0716A8A9924F711ECC74144C98C28384621BBE479D9B47940F8E85DB57639C.pygtex,
  997076A8843A3C7054DF2D29447AF9D584621BBE479D9B47940F8E85DB57639C.pygtex,
  FA1C1693382A92062A22EBE41846F563C95433F8B3C5A10CEF413AD871465228.pygtex,
  D0FF8821DFED198CCA2CBA7D1DC2874FC95433F8B3C5A10CEF413AD871465228.pygtex,
  647CBFA2AD63529272BE8681B7492A5DC95433F8B3C5A10CEF413AD871465228.pygtex,
  056F1910D7903E87BADD99B7A92493EAC95433F8B3C5A10CEF413AD871465228.pygtex,
  A0B4F8E52A4F4ABA89837C30D11DEDE7C95433F8B3C5A10CEF413AD871465228.pygtex,
  35462E6E53F07BDBBF774AEBBE2B7261C95433F8B3C5A10CEF413AD871465228.pygtex,
  C31B2D4A1EB06F213019E65EEDBF92DCC95433F8B3C5A10CEF413AD871465228.pygtex,
  8C467E5EDCD96369D9F559B27B8387FBC95433F8B3C5A10CEF413AD871465228.pygtex,
  628F6074148E0471A6B3056F80A4472EC95433F8B3C5A10CEF413AD871465228.pygtex,
  35749BDBAC638D5B19A86FDA7B56AB79C95433F8B3C5A10CEF413AD871465228.pygtex,
  068CE53A7BFED485B23775100B032BCEC95433F8B3C5A10CEF413AD871465228.pygtex,
  932C7244C679A621DACEF10585216894C95433F8B3C5A10CEF413AD871465228.pygtex,
  DAA3E282E55C3D1F35046ECE4904EEA5C95433F8B3C5A10CEF413AD871465228.pygtex,
  254F661A259F3710F957B8B0177F6BB7C95433F8B3C5A10CEF413AD871465228.pygtex,
  65095E1FBE8CC614E99D96ACFE2C2477C95433F8B3C5A10CEF413AD871465228.pygtex,
  A7561699BF345787D9FCA33F65F527A3C95433F8B3C5A10CEF413AD871465228.pygtex,
  B0F6C850455D5484E22CDCD51322C54DC95433F8B3C5A10CEF413AD871465228.pygtex,
  80CC58640D20D831BA9200FB1081FE4DC95433F8B3C5A10CEF413AD871465228.pygtex,
  8CD82D1F236A77B505EE235C825EFAB9C95433F8B3C5A10CEF413AD871465228.pygtex,
  908239832532F85272D7BC1CB84FD57DC95433F8B3C5A10CEF413AD871465228.pygtex,
  88FF06FD615D10880277A5DAB2124194C95433F8B3C5A10CEF413AD871465228.pygtex,
  99C68502DFC0C491406CDB75E70DE0DEC95433F8B3C5A10CEF413AD871465228.pygtex,
  0F6EF4B5438D41B263893728A8435DFFC95433F8B3C5A10CEF413AD871465228.pygtex,
  D662D6710589E4AE98E433C8C44445A2C95433F8B3C5A10CEF413AD871465228.pygtex,
  0A074FA2AE42325E80DF6234576C55BFC95433F8B3C5A10CEF413AD871465228.pygtex,
  688F90ABDD909BF699FF315F71F50F47C95433F8B3C5A10CEF413AD871465228.pygtex,
  B973344E3B93EAF793334692F9C4DC86C95433F8B3C5A10CEF413AD871465228.pygtex,
  479A793B5B63DB50E9120BFDEB8B7923C95433F8B3C5A10CEF413AD871465228.pygtex,
  F7BC27502E5319466688892D62936C5BC95433F8B3C5A10CEF413AD871465228.pygtex,
  38718BA15520546CA74D7D7C5F51D6D9C95433F8B3C5A10CEF413AD871465228.pygtex,
  56F0DF069610D627C09029D1980E9B10C95433F8B3C5A10CEF413AD871465228.pygtex,
  E626A921826B4F273004751BBA6E0804C95433F8B3C5A10CEF413AD871465228.pygtex,
  EF04D63DB98CE11D538359A4E8C0A799C95433F8B3C5A10CEF413AD871465228.pygtex,
  7D863C40AD2AAFA3C59B07F80736A2CEC95433F8B3C5A10CEF413AD871465228.pygtex,
  7F3B4DC3B14ED465FE3745C8E17837F5C95433F8B3C5A10CEF413AD871465228.pygtex,
  57F2D832AF8C9D071FAC1E200DCB4604C95433F8B3C5A10CEF413AD871465228.pygtex,
  50B356258443D6CDCC83B2E943090AF2C95433F8B3C5A10CEF413AD871465228.pygtex,
  EBBE34E43BBAED2499B5E061CC6BC7A9C95433F8B3C5A10CEF413AD871465228.pygtex,
  AE5F8CD9B2B776027D469B9EFFEB5556C95433F8B3C5A10CEF413AD871465228.pygtex,
  A782EE7790B93ABAD652E54971319D66C95433F8B3C5A10CEF413AD871465228.pygtex,
  A2D8C09E068F781A94A41C6BF822FD38C95433F8B3C5A10CEF413AD871465228.pygtex,
  6A1F43E0D6A8C524B38E4CE55AEE220DC95433F8B3C5A10CEF413AD871465228.pygtex,
  C6F79B24AC104B1308C5D0F7BBDEED65C95433F8B3C5A10CEF413AD871465228.pygtex,
  7E162787FB1BB9B8E20C1A66AB5E422CC95433F8B3C5A10CEF413AD871465228.pygtex,
  251F524A9E4138969E440776ABBDBCCCC95433F8B3C5A10CEF413AD871465228.pygtex,
  69C68FCCAF61BE20A39E00389A0CEBE1C95433F8B3C5A10CEF413AD871465228.pygtex,
  33777C0E2B89B52727E953FFC407BF75C95433F8B3C5A10CEF413AD871465228.pygtex}
\@writefile{toc}{\contentsline {section}{\numberline {14}Bibliografia}{22}{}\protected@file@percent }
\gdef \@abspage@last{22}
